{
    "items":[
      {
        "id": "1",
        "image": "https://miro.medium.com/max/305/1*LlPNDbRF8J2NGNmTYz8d7Q.jpeg",
        "name": "Mocha Coffe",
        "harga": "IDR 17K",
        "order": ""
      },
      {
        "id": "2",
        "image": "https://img.kurio.network/x3DmOgRv9V16ZdWYT4gtRaYjS2s=/700x350/filters:quality(80):format(jpeg)/https://kurio-img.kurioapps.com/19/05/28/50de339f-7e20-4738-b9a4-a2ba49991add.jpg",
        "name": "Cappucino",
        "harga": "IDR 15K",
        "order": ""
      },
      {
        "id": "3",
        "image": "https://d2lswn7b0fl4u2.cloudfront.net/photos/pg-recipes-americano-1571757341897.jpg",
        "name": "Americano",
        "harga": "IDR 15K",
        "order": ""
      },
      {
        "id": "4",
        "image": "https://cdnimg.webstaurantstore.com/images/products/large/107078/1995951.jpg",
        "name": "Vanilla Latte",
        "harga": "IDR 20K",
        "order": ""
      }
    ]
  }